Time [h]	0.000	67.867	91.033	114.483	140.100	166.833	241.733	264.733	283.817	312.000
methanol	0.022	0.036	0.066	0.086	0.103	0.127	0.303	0.351	0.376	0.363
control	0.022	0.014	0.018	0.02	0.01	0.004	0.013	0.004	0.004	0.001
